Running LACE framework on real data
…
## Calculating cluster T0_BT

## Calculating cluster T1_4d_OT

## Calculating cluster T3_57d_OT

TP_top10m <-  TimePoint_markers %>% group_by(cluster) %>% top_n(n = 10, wt = avg_log2FC)
print(TP_top10m[order(TP_top10m$avg_log2FC, decreasing = T), ])

## Registered S3 method overwritten by 'cli':
##   method     from         
##   print.boxx spatstat.geom

## # A tibble: 40 x 7
## # Groups:   cluster [4]
##       p_val avg_log2FC pct.1 pct.2 p_val_adj cluster   gene   
##       <dbl>      <dbl> <dbl> <dbl>     <dbl> <fct>     <chr>  
##  1 4.00e- 9       3.00 0.773 0.62   1.11e- 4 T3_57d_OT IFI6   
##  2 1.13e-13       2.72 0.414 0.133  3.15e- 9 T3_57d_OT MX1    
##  3 5.05e-51       2.58 1     0.523  1.40e-46 T0_BT     MEST   
##  4 8.88e- 8       2.51 0.586 0.385  2.46e- 3 T1_4d_OT  TYRP1  
##  5 3.37e-13       2.51 0.336 0.086  9.35e- 9 T3_57d_OT IFITM1 
##  6 1.32e-30       2.42 0.904 0.407  3.67e-26 T0_BT     C1QTNF3
##  7 6.56e-12       2.18 0.889 0.865  1.82e- 7 T2_28d_OT DNAJB1 
##  8 1.65e- 3       2.16 0.625 0.545  1   e+ 0 T3_57d_OT HLA-B  
##  9 1.05e-21       2.08 0.555 0.134  2.91e-17 T0_BT     RGS5   
## 10 9.45e-43       1.85 0.932 0.362  2.62e-38 T0_BT     SOSTDC1
## # ... with 30 more rows
